{
    "href": "https://api.spotify.com/v1/users/smedjan/playlists?offset=5&limit=10",
    "items": [
        {
            "collaborative": false,
            "description": "",
            "external_urls": {
                "spotify": "https://open.spotify.com/playlist/47s8Pj6MjV5UWYEaHIe9ZH"
            },
            "href": "https://api.spotify.com/v1/playlists/47s8Pj6MjV5UWYEaHIe9ZH",
            "id": "47s8Pj6MjV5UWYEaHIe9ZH",
            "images": [
                {
                    "height": 640,
                    "url": "https://mosaic.scdn.co/640/ab67616d0000b2733a2d2b9621ef645380c63c16ab67616d0000b273ba4c798ab356b8adb64bb2fcab67616d0000b273cb8d1acbf1184d3b7b268747ab67616d0000b273dbe9c4609ec382dcc0391e62",
                    "width": 640
                },
                {
                    "height": 300,
                    "url": "https://mosaic.scdn.co/300/ab67616d0000b2733a2d2b9621ef645380c63c16ab67616d0000b273ba4c798ab356b8adb64bb2fcab67616d0000b273cb8d1acbf1184d3b7b268747ab67616d0000b273dbe9c4609ec382dcc0391e62",
                    "width": 300
                },
                {
                    "height": 60,
                    "url": "https://mosaic.scdn.co/60/ab67616d0000b2733a2d2b9621ef645380c63c16ab67616d0000b273ba4c798ab356b8adb64bb2fcab67616d0000b273cb8d1acbf1184d3b7b268747ab67616d0000b273dbe9c4609ec382dcc0391e62",
                    "width": 60
                }
            ],
            "name": "Dance I Said",
            "owner": {
                "display_name": "Michelle Kadir",
                "external_urls": {
                    "spotify": "https://open.spotify.com/user/michellekadir"
                },
                "href": "https://api.spotify.com/v1/users/michellekadir",
                "id": "michellekadir",
                "type": "user",
                "uri": "spotify:user:michellekadir"
            },
            "primary_color": null,
            "public": true,
            "snapshot_id": "NjU1LGViYzk5YWViYWVmNmExN2ViMWZiOTEwMDVlM2YwZTg2ZTA4Y2FmNDA=",
            "tracks": {
                "href": "https://api.spotify.com/v1/playlists/47s8Pj6MjV5UWYEaHIe9ZH/tracks",
                "total": 106
            },
            "type": "playlist",
            "uri": "spotify:playlist:47s8Pj6MjV5UWYEaHIe9ZH"
        },
        {
            "collaborative": false,
            "description": "",
            "external_urls": {
                "spotify": "https://open.spotify.com/playlist/13XT3kKAKOuhKV1IdgQxzf"
            },
            "href": "https://api.spotify.com/v1/playlists/13XT3kKAKOuhKV1IdgQxzf",
            "id": "13XT3kKAKOuhKV1IdgQxzf",
            "images": [
                {
                    "height": 640,
                    "url": "https://mosaic.scdn.co/640/ab67616d0000b27342165edf668b41cb531722b0ab67616d0000b273599dfe976032830e5ec68945ab67616d0000b27397a9ac8888b636959cd8353cab67616d0000b2739d2ff3fc2590549e13f17670",
                    "width": 640
                },
                {
                    "height": 300,
                    "url": "https://mosaic.scdn.co/300/ab67616d0000b27342165edf668b41cb531722b0ab67616d0000b273599dfe976032830e5ec68945ab67616d0000b27397a9ac8888b636959cd8353cab67616d0000b2739d2ff3fc2590549e13f17670",
                    "width": 300
                },
                {
                    "height": 60,
                    "url": "https://mosaic.scdn.co/60/ab67616d0000b27342165edf668b41cb531722b0ab67616d0000b273599dfe976032830e5ec68945ab67616d0000b27397a9ac8888b636959cd8353cab67616d0000b2739d2ff3fc2590549e13f17670",
                    "width": 60
                }
            ],
            "name": "Instrumental",
            "owner": {
                "display_name": "migo",
                "external_urls": {
                    "spotify": "https://open.spotify.com/user/migo"
                },
                "href": "https://api.spotify.com/v1/users/migo",
                "id": "migo",
                "type": "user",
                "uri": "spotify:user:migo"
            },
            "primary_color": null,
            "public": true,
            "snapshot_id": "ODAsMjUzODBmZmFiMjk5ZjZhZjc1M2UxYWIxMWQ0YjUxODU4Y2FlMDMyZQ==",
            "tracks": {
                "href": "https://api.spotify.com/v1/playlists/13XT3kKAKOuhKV1IdgQxzf/tracks",
                "total": 49
            },
            "type": "playlist",
            "uri": "spotify:playlist:13XT3kKAKOuhKV1IdgQxzf"
        },
        {
            "collaborative": false,
            "description": "",
            "external_urls": {
                "spotify": "https://open.spotify.com/playlist/70lIZA6kTENcryaoGNIPaA"
            },
            "href": "https://api.spotify.com/v1/playlists/70lIZA6kTENcryaoGNIPaA",
            "id": "70lIZA6kTENcryaoGNIPaA",
            "images": [
                {
                    "height": 640,
                    "url": "https://i.scdn.co/image/ab67616d0000b2734b54ff0819a2bc4c667c9d76",
                    "width": 640
                }
            ],
            "name": "Steve Vai - The Story of Light",
            "owner": {
                "display_name": "migo",
                "external_urls": {
                    "spotify": "https://open.spotify.com/user/migo"
                },
                "href": "https://api.spotify.com/v1/users/migo",
                "id": "migo",
                "type": "user",
                "uri": "spotify:user:migo"
            },
            "primary_color": null,
            "public": true,
            "snapshot_id": "Niw0MDY4NTVhZjJiNjkzYTZkYzZhY2NiNGRhMTgxODhlZjhhYWQ1ODQ2",
            "tracks": {
                "href": "https://api.spotify.com/v1/playlists/70lIZA6kTENcryaoGNIPaA/tracks",
                "total": 12
            },
            "type": "playlist",
            "uri": "spotify:playlist:70lIZA6kTENcryaoGNIPaA"
        },
        {
            "collaborative": false,
            "description": "",
            "external_urls": {
                "spotify": "https://open.spotify.com/playlist/6FTrJV6xPwAxEGNsIDG5Uj"
            },
            "href": "https://api.spotify.com/v1/playlists/6FTrJV6xPwAxEGNsIDG5Uj",
            "id": "6FTrJV6xPwAxEGNsIDG5Uj",
            "images": [
                {
                    "height": 640,
                    "url": "https://mosaic.scdn.co/640/ab67616d0000b27310a9b88453d9d4a3aeb55a18ab67616d0000b27366c35697a32e5437811bb5ffab67616d0000b2736ade8c0cde82fad3b8645078ab67616d0000b273a0ef2b3fa19f6d2a03149dca",
                    "width": 640
                },
                {
                    "height": 300,
                    "url": "https://mosaic.scdn.co/300/ab67616d0000b27310a9b88453d9d4a3aeb55a18ab67616d0000b27366c35697a32e5437811bb5ffab67616d0000b2736ade8c0cde82fad3b8645078ab67616d0000b273a0ef2b3fa19f6d2a03149dca",
                    "width": 300
                },
                {
                    "height": 60,
                    "url": "https://mosaic.scdn.co/60/ab67616d0000b27310a9b88453d9d4a3aeb55a18ab67616d0000b27366c35697a32e5437811bb5ffab67616d0000b2736ade8c0cde82fad3b8645078ab67616d0000b273a0ef2b3fa19f6d2a03149dca",
                    "width": 60
                }
            ],
            "name": "Pulp Fiction (approximate)",
            "owner": {
                "display_name": "migo",
                "external_urls": {
                    "spotify": "https://open.spotify.com/user/migo"
                },
                "href": "https://api.spotify.com/v1/users/migo",
                "id": "migo",
                "type": "user",
                "uri": "spotify:user:migo"
            },
            "primary_color": null,
            "public": true,
            "snapshot_id": "MzAsNjcyNTA4ZmVlMDBiYzU5MTgxNzk4MDFhNzk1NDExZGU3ZjMwNGMxMg==",
            "tracks": {
                "href": "https://api.spotify.com/v1/playlists/6FTrJV6xPwAxEGNsIDG5Uj/tracks",
                "total": 12
            },
            "type": "playlist",
            "uri": "spotify:playlist:6FTrJV6xPwAxEGNsIDG5Uj"
        },
        {
            "collaborative": false,
            "description": "",
            "external_urls": {
                "spotify": "https://open.spotify.com/playlist/2tiFrJw4jgaQEDTGkNY4Lt"
            },
            "href": "https://api.spotify.com/v1/playlists/2tiFrJw4jgaQEDTGkNY4Lt",
            "id": "2tiFrJw4jgaQEDTGkNY4Lt",
            "images": [
                {
                    "height": 640,
                    "url": "https://i.scdn.co/image/ab67616d0000b2731d7f86bc0a6c0cab4503aa17",
                    "width": 640
                }
            ],
            "name": "friday",
            "owner": {
                "display_name": "smedjan",
                "external_urls": {
                    "spotify": "https://open.spotify.com/user/smedjan"
                },
                "href": "https://api.spotify.com/v1/users/smedjan",
                "id": "smedjan",
                "type": "user",
                "uri": "spotify:user:smedjan"
            },
            "primary_color": null,
            "public": true,
            "snapshot_id": "NCwxMjYzM2JiMTBmYzM3Y2RkNGEwMTE1ODk5OTgyZTljOWJmNjRjNDI2",
            "tracks": {
                "href": "https://api.spotify.com/v1/playlists/2tiFrJw4jgaQEDTGkNY4Lt/tracks",
                "total": 2
            },
            "type": "playlist",
            "uri": "spotify:playlist:2tiFrJw4jgaQEDTGkNY4Lt"
        },
        {
            "collaborative": false,
            "description": "",
            "external_urls": {
                "spotify": "https://open.spotify.com/playlist/0EDdjGp3CRtWBWesrDv45e"
            },
            "href": "https://api.spotify.com/v1/playlists/0EDdjGp3CRtWBWesrDv45e",
            "id": "0EDdjGp3CRtWBWesrDv45e",
            "images": [
                {
                    "height": null,
                    "url": "https://i.scdn.co/image/ab67706c0000bebb046a80315ca7366b7e337a0f",
                    "width": null
                }
            ],
            "name": "07:42",
            "owner": {
                "display_name": "robin",
                "external_urls": {
                    "spotify": "https://open.spotify.com/user/robbanrapp"
                },
                "href": "https://api.spotify.com/v1/users/robbanrapp",
                "id": "robbanrapp",
                "type": "user",
                "uri": "spotify:user:robbanrapp"
            },
            "primary_color": null,
            "public": true,
            "snapshot_id": "Mjk0LDJhOTk4ZDE3YWI4MDcwNWQzYzUzOTdlZGNmYjg1MmVmMDhlNzdiMTM=",
            "tracks": {
                "href": "https://api.spotify.com/v1/playlists/0EDdjGp3CRtWBWesrDv45e/tracks",
                "total": 167
            },
            "type": "playlist",
            "uri": "spotify:playlist:0EDdjGp3CRtWBWesrDv45e"
        },
        {
            "collaborative": false,
            "description": "",
            "external_urls": {
                "spotify": "https://open.spotify.com/playlist/29e81WfoAsVIwEzXpSv2KT"
            },
            "href": "https://api.spotify.com/v1/playlists/29e81WfoAsVIwEzXpSv2KT",
            "id": "29e81WfoAsVIwEzXpSv2KT",
            "images": [
                {
                    "height": 640,
                    "url": "https://mosaic.scdn.co/640/ab67616d0000b2736fd7ec50eeda2f6820f1f873ab67616d0000b273a225c8c1d15e529f05111a8cab67616d0000b273dd87a2f68949c8fcbbec91beab67616d0000b273fff2cb485c36a6d8f639bdba",
                    "width": 640
                },
                {
                    "height": 300,
                    "url": "https://mosaic.scdn.co/300/ab67616d0000b2736fd7ec50eeda2f6820f1f873ab67616d0000b273a225c8c1d15e529f05111a8cab67616d0000b273dd87a2f68949c8fcbbec91beab67616d0000b273fff2cb485c36a6d8f639bdba",
                    "width": 300
                },
                {
                    "height": 60,
                    "url": "https://mosaic.scdn.co/60/ab67616d0000b2736fd7ec50eeda2f6820f1f873ab67616d0000b273a225c8c1d15e529f05111a8cab67616d0000b273dd87a2f68949c8fcbbec91beab67616d0000b273fff2cb485c36a6d8f639bdba",
                    "width": 60
                }
            ],
            "name": "Top 100 Tracks of 2011",
            "owner": {
                "display_name": "Pitchfork",
                "external_urls": {
                    "spotify": "https://open.spotify.com/user/pitchfork"
                },
                "href": "https://api.spotify.com/v1/users/pitchfork",
                "id": "pitchfork",
                "type": "user",
                "uri": "spotify:user:pitchfork"
            },
            "primary_color": null,
            "public": true,
            "snapshot_id": "Myw4OGNkOWQwNGFiNDZjYjRlMzBkNDBlN2Q3OTU1NmI1NTUxNWU0MGI2",
            "tracks": {
                "href": "https://api.spotify.com/v1/playlists/29e81WfoAsVIwEzXpSv2KT/tracks",
                "total": 97
            },
            "type": "playlist",
            "uri": "spotify:playlist:29e81WfoAsVIwEzXpSv2KT"
        },
        {
            "collaborative": false,
            "description": "",
            "external_urls": {
                "spotify": "https://open.spotify.com/playlist/6sjcAKwplYdvNVmXuVWqYK"
            },
            "href": "https://api.spotify.com/v1/playlists/6sjcAKwplYdvNVmXuVWqYK",
            "id": "6sjcAKwplYdvNVmXuVWqYK",
            "images": [
                {
                    "height": null,
                    "url": "https://i.scdn.co/image/ab67706c0000bebbc421935777d6aa97ca36f613",
                    "width": null
                }
            ],
            "name": "Kanye West - The Samples",
            "owner": {
                "display_name": "King Poop",
                "external_urls": {
                    "spotify": "https://open.spotify.com/user/125214440"
                },
                "href": "https://api.spotify.com/v1/users/125214440",
                "id": "125214440",
                "type": "user",
                "uri": "spotify:user:125214440"
            },
            "primary_color": null,
            "public": true,
            "snapshot_id": "MjgwLDIzZDkyZTk5MGE3YTljNjg3MmI2YWVmY2YxZGFmZGY2MTIwNjI1OGM=",
            "tracks": {
                "href": "https://api.spotify.com/v1/playlists/6sjcAKwplYdvNVmXuVWqYK/tracks",
                "total": 145
            },
            "type": "playlist",
            "uri": "spotify:playlist:6sjcAKwplYdvNVmXuVWqYK"
        },
        {
            "collaborative": false,
            "description": "The official <a href=\"http://www.billboard.com/charts/hot-100\">Billboard Hot 100</a> features this week's most popular songs across all genres, ranked by radio airplay monitored by Nielsen BDS, download sales tracked by Nielsen SoundScan and streaming activity data provided by leading online music services. For more information go to <a href=\"http://Billboard.com\">Billboard.com</a>.",
            "external_urls": {
                "spotify": "https://open.spotify.com/playlist/6UeSakyzhiEt4NB3UAd6NQ"
            },
            "href": "https://api.spotify.com/v1/playlists/6UeSakyzhiEt4NB3UAd6NQ",
            "id": "6UeSakyzhiEt4NB3UAd6NQ",
            "images": [
                {
                    "height": null,
                    "url": "https://i.scdn.co/image/ab67706c0000bebb3bd5501a335b265807df34db",
                    "width": null
                }
            ],
            "name": "Billboard Hot 100",
            "owner": {
                "display_name": "Billboard",
                "external_urls": {
                    "spotify": "https://open.spotify.com/user/billboard.com"
                },
                "href": "https://api.spotify.com/v1/users/billboard.com",
                "id": "billboard.com",
                "type": "user",
                "uri": "spotify:user:billboard.com"
            },
            "primary_color": null,
            "public": true,
            "snapshot_id": "MTMzMjEsYWIyOTE3ZjYyMDAzZTkwYmQwYTZkYWI3OWUwYTY1MTljODNhYmI2Ng==",
            "tracks": {
                "href": "https://api.spotify.com/v1/playlists/6UeSakyzhiEt4NB3UAd6NQ/tracks",
                "total": 100
            },
            "type": "playlist",
            "uri": "spotify:playlist:6UeSakyzhiEt4NB3UAd6NQ"
        },
        {
            "collaborative": false,
            "description": "Ta det lugnt &amp; koppla av till höst-mysiga &amp; behagliga låtar. Kärlekssånger, sköna hits, svenska klassiker, akustiska låtar &amp; vackra ballader.",
            "external_urls": {
                "spotify": "https://open.spotify.com/playlist/4tIypOcGSBi4GPlXbbNBmf"
            },
            "href": "https://api.spotify.com/v1/playlists/4tIypOcGSBi4GPlXbbNBmf",
            "id": "4tIypOcGSBi4GPlXbbNBmf",
            "images": [
                {
                    "height": null,
                    "url": "https://i.scdn.co/image/ab67706c0000bebbf2b00d5194e10e75a7da0bdd",
                    "width": null
                }
            ],
            "name": "lugna låtar 2022 ❤️ lugn & mysig musik",
            "owner": {
                "display_name": "Filtr Sweden",
                "external_urls": {
                    "spotify": "https://open.spotify.com/user/sonymusicentertainment"
                },
                "href": "https://api.spotify.com/v1/users/sonymusicentertainment",
                "id": "sonymusicentertainment",
                "type": "user",
                "uri": "spotify:user:sonymusicentertainment"
            },
            "primary_color": null,
            "public": true,
            "snapshot_id": "NjkwNCw5MWQ0MzdjYzA0NmE0OTA1ZmJkZDM3OGZjNTU1MTU3MWY4YzM1OGRk",
            "tracks": {
                "href": "https://api.spotify.com/v1/playlists/4tIypOcGSBi4GPlXbbNBmf/tracks",
                "total": 232
            },
            "type": "playlist",
            "uri": "spotify:playlist:4tIypOcGSBi4GPlXbbNBmf"
        }
    ],
    "limit": 10,
    "next": "https://api.spotify.com/v1/users/smedjan/playlists?offset=15&limit=10",
    "offset": 5,
    "previous": "https://api.spotify.com/v1/users/smedjan/playlists?offset=0&limit=10",
    "total": 98
}